sim_rtl/kf_kf_2d.log
ncverilog(64): 15.20-s079: (c) Copyright 1995-2019 Cadence Design Systems, Inc.
file: ../src/kf_top_tb.v
	module worklib.kf_top_tb:v
		errors: 0, warnings: 0
		Caching library 'worklib' ....... Done
	Elaborating the design hierarchy:
	Building instance overlay tables: .................... Done
	Generating native compiled code:
		worklib.kf_top:v <0x58b49071>
			streams:  11, words:  3118
		worklib.kf_top_tb:v <0x53e32e77>
			streams:  10, words: 50249
		worklib.rom_256x16:v <0x5a154731>
			streams:   4, words:  2312
		worklib.sequencer:v <0x5ca861ce>
			streams:   7, words:  2767
	Building instance specific data structures.
	Loading native compiled code:     .................... Done
	Design hierarchy summary:
		                 Instances  Unique
		Modules:                12      12
		Registers:              60      60
		Scalar wires:           29       -
		Vectored wires:         53       -
		Always blocks:          21      21
		Initial blocks:          5       5
		Cont. assignments:      39      50
		Pseudo assignments:      3       3
		Simulation timescale:  1ps
	Writing initial simulation snapshot: worklib.kf_top_tb:v
Loading snapshot worklib.kf_top_tb:v .................... Done
ncsim> source /CMC/tools/cadence/INCISIVE15.20.079_lnx86/tools/inca/files/ncsimrc
ncsim> run
[ROM] Loaded instructions from kf_2d.mem
================================================================
Kalman Filter ASIC Unified Testbench
Test Mode: 2D
ROM File: kf_2d.mem
================================================================

========================================
2D Kalman Filter Test
ROM File: kf_2d.mem
========================================
Inertial Navigation: State=[position; velocity]
Phi=[1 0.1; 0 1], H=[1 0], Q=0.01*I, R=0.1
Initial: x=[0; 1], P=I
Measurement: y=0.5

--- Executing Kalman Filter ---
  Cycle   0: PC= 22, READY=0, e=0, f=1
  Cycle   1: PC= 23, READY=0, e=1, f=0
  Cycle   2: PC= 24, READY=0, e=0, f=1
  Cycle   3: PC= 25, READY=0, e=1, f=1
  Cycle   4: PC= 26, READY=0, e=1, f=0
  Cycle   5: PC= 27, READY=0, e=0, f=1
  Cycle   6: PC= 28, READY=0, e=1, f=1
  Cycle   7: PC= 29, READY=0, e=1, f=0
  Cycle   8: PC= 30, READY=0, e=0, f=1
  Cycle   9: PC= 31, READY=0, e=1, f=0
  Cycle  10: PC= 32, READY=0, e=0, f=1
  Cycle  11: PC= 33, READY=0, e=1, f=1
  Cycle  12: PC= 34, READY=0, e=1, f=0
  Cycle  13: PC= 35, READY=0, e=0, f=1
  Cycle  14: PC= 36, READY=0, e=1, f=1
  Cycle  15: PC= 37, READY=0, e=1, f=0
  Cycle  16: PC= 38, READY=0, e=0, f=1
  Cycle  17: PC= 39, READY=0, e=1, f=0
  Cycle  18: PC= 40, READY=0, e=0, f=1
  Cycle  19: PC= 41, READY=0, e=1, f=1
  Cycle  20: PC= 42, READY=0, e=1, f=0
  Cycle  21: PC= 43, READY=0, e=0, f=1
  Cycle  22: PC= 44, READY=0, e=1, f=0
  Cycle  23: PC= 45, READY=0, e=0, f=1
  Cycle  24: PC= 46, READY=0, e=1, f=1
  Cycle  25: PC= 47, READY=0, e=1, f=0
  Cycle  26: PC= 48, READY=0, e=0, f=1
  Cycle  27: PC= 49, READY=0, e=1, f=0
  Cycle  28: PC= 50, READY=0, e=0, f=1
  Cycle  29: PC= 51, READY=0, e=1, f=1
  Cycle  50: PC= 72, READY=0, e=0, f=1
  Cycle 100: PC=101, READY=0, e=1, f=0
  Cycle 150: PC=118, READY=0, e=1, f=0
  KF computation completed at cycle         193

--- Results ---
  x1 (position) = 0.464233 (expected ~0.464)
  x2 (velocity) = 1.035645 (expected ~1.036)
  P11 = 0.091187
  P12 = 0.008972
  P21 = 0.091858
  P22 = 1.009216

--- Expected (manual calculation) ---
  x^- = [0.1; 1.0]
  K = [0.911; 0.089]
  x^+ = [0.464; 1.036]

================================================================
Kalman Filter Test Complete
================================================================

Simulation complete via $finish(1) at time 2216 NS + 0
../src/kf_top_tb.v:296     $finish;
ncsim> exit
